<?xml version="1.0" encoding="UTF-8" standalone="no"?>
<!-- Created with Inkscape (http://www.inkscape.org/) -->
<svg xmlns:dc="http://purl.org/dc/elements/1.1/" xmlns:cc="http://creativecommons.org/ns#" xmlns:rdf="http://www.w3.org/1999/02/22-rdf-syntax-ns#" xmlns:svg="http://www.w3.org/2000/svg" xmlns="http://www.w3.org/2000/svg" xmlns:xlink="http://www.w3.org/1999/xlink" xmlns:sodipodi="http://sodipodi.sourceforge.net/DTD/sodipodi-0.dtd" xmlns:inkscape="http://www.inkscape.org/namespaces/inkscape" width="390" height="250" id="svg2924" sodipodi:version="0.32" inkscape:version="0.46" version="1.0" sodipodi:docname="chart.svg" inkscape:output_extension="org.inkscape.output.svg.inkscape">
  <defs id="defs2926">
    <linearGradient id="Definition_LinearGradient_76_64_78_66_b3ff4400_619e2400">
      <stop offset="0" style="stop-color: #b3ff44; stop-opacity: 1.00;" id="stop24"/>
      <stop offset="1" style="stop-color: #619e24; stop-opacity: 1.00;" id="stop26"/>
    </linearGradient>
    <linearGradient inkscape:collect="always" xlink:href="#Definition_LinearGradient_76_64_78_66_b3ff4400_619e2400" id="linearGradient2905" gradientUnits="userSpaceOnUse" x1="76.3702" y1="64.2934" x2="78.8554" y2="66.7786"/>
    <linearGradient id="Definition_LinearGradient_318_84_320_87_ff9d0000_ac550000">
      <stop offset="0" style="stop-color: #ff9d00; stop-opacity: 1.00;" id="stop156"/>
      <stop offset="1" style="stop-color: #ac5500; stop-opacity: 1.00;" id="stop158"/>
    </linearGradient>
    <linearGradient inkscape:collect="always" xlink:href="#Definition_LinearGradient_318_84_320_87_ff9d0000_ac550000" id="jdepend.bad.gradient" gradientUnits="userSpaceOnUse" x1="0" y1="15" x2="15" y2="30"/>
    <inkscape:perspective sodipodi:type="inkscape:persp3d" inkscape:vp_x="0 : 526.18109 : 1" inkscape:vp_y="0 : 1000 : 0" inkscape:vp_z="744.09448 : 526.18109 : 1" inkscape:persp3d-origin="372.04724 : 350.78739 : 1" id="perspective2932"/>
    <linearGradient inkscape:collect="always" xlink:href="#Definition_LinearGradient_76_64_78_66_b3ff4400_619e2400" id="jdepend.good.gradient" gradientUnits="userSpaceOnUse" x1="0" y1="15" x2="15" y2="30"/>
  </defs>
  <sodipodi:namedview id="base" pagecolor="#ffffff" bordercolor="#666666" borderopacity="1.0" gridtolerance="10000" guidetolerance="10" objecttolerance="10" inkscape:pageopacity="0.0" inkscape:pageshadow="2" inkscape:zoom="1.5" inkscape:cx="138.95468" inkscape:cy="125" inkscape:document-units="px" inkscape:current-layer="layer1" showgrid="false" inkscape:window-width="1280" inkscape:window-height="753" inkscape:window-x="0" inkscape:window-y="46"/>
  <metadata id="metadata2929">
    <rdf:RDF>
      <cc:Work rdf:about="">
        <dc:format>image/svg+xml</dc:format>
        <dc:type rdf:resource="http://purl.org/dc/dcmitype/StillImage"/>
      </cc:Work>
    </rdf:RDF>
  </metadata>
  <g inkscape:label="Layer 1" inkscape:groupmode="layer" id="layer1" xml:id="jdepend.layer">
    <rect style="opacity:1;fill:#4e9a06;fill-opacity:1;stroke:none;stroke-width:1;stroke-miterlimit:4;stroke-dasharray:none;stroke-opacity:1" id="rect4614" width="373.00024" height="1.0000018" x="53.196194" y="-9.293786" transform="matrix(0.8604851,0.5094756,-0.5094738,0.8604862,0,0)"/>
    <rect style="opacity:1;fill:#babdb6;fill-opacity:1;stroke:none;stroke-width:1;stroke-miterlimit:4;stroke-dasharray:none;stroke-opacity:1" id="rect4464" width="0.99999946" height="201" x="82" y="19.000061" rx="0" ry="0"/>
    <rect style="opacity:1;fill:#babdb6;fill-opacity:1;stroke:none;stroke-width:1;stroke-miterlimit:4;stroke-dasharray:none;stroke-opacity:1" id="rect4466" width="0.99999946" height="201" x="113.99999" y="19.000061" rx="0" ry="0"/>
    <rect style="opacity:1;fill:#babdb6;fill-opacity:1;stroke:none;stroke-width:1;stroke-miterlimit:4;stroke-dasharray:none;stroke-opacity:1" id="rect4468" width="0.99999946" height="201" x="146" y="19.000061" rx="0" ry="0"/>
    <rect style="opacity:1;fill:#babdb6;fill-opacity:1;stroke:none;stroke-width:1;stroke-miterlimit:4;stroke-dasharray:none;stroke-opacity:1" id="rect4470" width="0.99999946" height="201" x="177.99998" y="19.000061" rx="0" ry="0"/>
    <rect style="opacity:1;fill:#babdb6;fill-opacity:1;stroke:none;stroke-width:1;stroke-miterlimit:4;stroke-dasharray:none;stroke-opacity:1" id="rect4472" width="0.99999946" height="201" x="209.99998" y="19.000061" rx="0" ry="0"/>
    <rect style="opacity:1;fill:#babdb6;fill-opacity:1;stroke:none;stroke-width:1;stroke-miterlimit:4;stroke-dasharray:none;stroke-opacity:1" id="rect4474" width="0.99999946" height="201" x="241.99998" y="19.000061" rx="0" ry="0"/>
    <rect style="opacity:1;fill:#babdb6;fill-opacity:1;stroke:none;stroke-width:1;stroke-miterlimit:4;stroke-dasharray:none;stroke-opacity:1" id="rect4476" width="0.99999946" height="201" x="274" y="19.000061" rx="0" ry="0"/>
    <rect style="opacity:1;fill:#babdb6;fill-opacity:1;stroke:none;stroke-width:1;stroke-miterlimit:4;stroke-dasharray:none;stroke-opacity:1" id="rect4478" width="0.99999946" height="201" x="305.99997" y="19.000061" rx="0" ry="0"/>
    <rect style="opacity:1;fill:#babdb6;fill-opacity:1;stroke:none;stroke-width:1;stroke-miterlimit:4;stroke-dasharray:none;stroke-opacity:1" id="rect4480" width="0.99999946" height="201" x="337.99997" y="19.000061" rx="0" ry="0"/>
    <rect style="opacity:1;fill:#babdb6;fill-opacity:1;stroke:none;stroke-width:1;stroke-miterlimit:4;stroke-dasharray:none;stroke-opacity:1" id="rect4482" width="0.99999946" height="201" x="369.99997" y="19.000061" rx="0" ry="0"/>
    <rect style="opacity:1;fill:#babdb6;fill-opacity:1;stroke:none;stroke-width:1;stroke-miterlimit:4;stroke-dasharray:none;stroke-opacity:1" id="rect4484" width="331" height="1" x="40" y="19.000025"/>
    <rect style="opacity:1;fill:#babdb6;fill-opacity:1;stroke:none;stroke-width:1;stroke-miterlimit:4;stroke-dasharray:none;stroke-opacity:1" id="rect4486" width="331" height="1" x="40" y="57.000023"/>
    <rect style="opacity:1;fill:#babdb6;fill-opacity:1;stroke:none;stroke-width:1;stroke-miterlimit:4;stroke-dasharray:none;stroke-opacity:1" id="rect4488" width="331" height="1" x="40" y="38.000023"/>
    <rect style="opacity:1;fill:#babdb6;fill-opacity:1;stroke:none;stroke-width:1;stroke-miterlimit:4;stroke-dasharray:none;stroke-opacity:1" id="rect4490" width="331" height="1" x="40" y="76.000023"/>
    <rect style="opacity:1;fill:#babdb6;fill-opacity:1;stroke:none;stroke-width:1;stroke-miterlimit:4;stroke-dasharray:none;stroke-opacity:1" id="rect4492" width="331" height="1" x="40" y="95.000023"/>
    <rect style="opacity:1;fill:#babdb6;fill-opacity:1;stroke:none;stroke-width:1;stroke-miterlimit:4;stroke-dasharray:none;stroke-opacity:1" id="rect4494" width="331" height="1" x="40" y="133.00003"/>
    <rect style="opacity:1;fill:#babdb6;fill-opacity:1;stroke:none;stroke-width:1;stroke-miterlimit:4;stroke-dasharray:none;stroke-opacity:1" id="rect4496" width="331" height="1" x="40" y="114.00002"/>
    <rect style="opacity:1;fill:#babdb6;fill-opacity:1;stroke:none;stroke-width:1;stroke-miterlimit:4;stroke-dasharray:none;stroke-opacity:1" id="rect4498" width="331" height="1" x="40" y="152.00005"/>
    <rect style="opacity:1;fill:#babdb6;fill-opacity:1;stroke:none;stroke-width:1;stroke-miterlimit:4;stroke-dasharray:none;stroke-opacity:1" id="rect4500" width="331" height="1" x="40" y="171.00005"/>
    <rect style="opacity:1;fill:#babdb6;fill-opacity:1;stroke:none;stroke-width:1;stroke-miterlimit:4;stroke-dasharray:none;stroke-opacity:1" id="rect4502" width="331" height="1" x="40" y="190.00006"/>
    <rect style="opacity:1;fill:#555753;fill-opacity:1;stroke:none;stroke-width:1;stroke-miterlimit:4;stroke-dasharray:none;stroke-opacity:1" id="rect4504" width="331" height="1" x="40" y="209.00006"/>
    <rect style="opacity:1;fill:#555753;fill-opacity:1;stroke:none;stroke-width:1;stroke-miterlimit:4;stroke-dasharray:none;stroke-opacity:1" id="rect4462" width="0.99999946" height="201" x="49.999996" y="19.000061" rx="0" ry="0"/>
    <text xml:space="preserve" style="font-size:10px;font-style:normal;font-variant:normal;font-weight:bold;font-stretch:normal;text-align:center;text-anchor:middle;fill:#2e3436;fill-opacity:1;stroke:none;stroke-width:1px;stroke-linecap:butt;stroke-linejoin:miter;stroke-opacity:1;font-family:Arial;" x="83.181007" y="231.87305" id="text4506"><tspan sodipodi:role="line" id="tspan4508" x="83.181007" y="231.87305">0.1</tspan></text>
    <text xml:space="preserve" style="font-size:10px;font-style:normal;font-variant:normal;font-weight:bold;font-stretch:normal;text-align:center;text-anchor:middle;fill:#2e3436;fill-opacity:1;stroke:none;stroke-width:1px;stroke-linecap:butt;stroke-linejoin:miter;stroke-opacity:1;font-family:Arial;" x="114.70088" y="231.87305" id="text4510"><tspan sodipodi:role="line" id="tspan4512" x="114.70088" y="231.87305">0.2</tspan></text>
    <text xml:space="preserve" style="font-size:10px;font-style:normal;font-variant:normal;font-weight:bold;font-stretch:normal;text-align:center;text-anchor:middle;fill:#2e3436;fill-opacity:1;stroke:none;stroke-width:1px;stroke-linecap:butt;stroke-linejoin:miter;stroke-opacity:1;font-family:Arial;" x="242.95323" y="231.87305" id="text4514"><tspan sodipodi:role="line" id="tspan4516" x="242.95323" y="231.87305">0.6</tspan></text>
    <text xml:space="preserve" style="font-size:10px;font-style:normal;font-variant:normal;font-weight:bold;font-stretch:normal;text-align:center;text-anchor:middle;fill:#2e3436;fill-opacity:1;stroke:none;stroke-width:1px;stroke-linecap:butt;stroke-linejoin:miter;stroke-opacity:1;font-family:Arial;" x="210.84497" y="231.87305" id="text4518"><tspan sodipodi:role="line" id="tspan4520" x="210.84497" y="231.87305">0.5</tspan></text>
    <text xml:space="preserve" style="font-size:10px;font-style:normal;font-variant:normal;font-weight:bold;font-stretch:normal;text-align:center;text-anchor:middle;fill:#2e3436;fill-opacity:1;stroke:none;stroke-width:1px;stroke-linecap:butt;stroke-linejoin:miter;stroke-opacity:1;font-family:Arial;" x="178.72696" y="231.87305" id="text4522"><tspan sodipodi:role="line" id="tspan4524" x="178.72696" y="231.87305">0.4</tspan></text>
    <text xml:space="preserve" style="font-size:10px;font-style:normal;font-variant:normal;font-weight:bold;font-stretch:normal;text-align:center;text-anchor:middle;fill:#2e3436;fill-opacity:1;stroke:none;stroke-width:1px;stroke-linecap:butt;stroke-linejoin:miter;stroke-opacity:1;font-family:Arial;" x="146.74567" y="231.87305" id="text4526"><tspan sodipodi:role="line" id="tspan4528" x="146.74567" y="231.87305">0.3</tspan></text>
    <text xml:space="preserve" style="font-size:10px;font-style:normal;font-variant:normal;font-weight:bold;font-stretch:normal;text-align:center;text-anchor:middle;fill:#2e3436;fill-opacity:1;stroke:none;stroke-width:1px;stroke-linecap:butt;stroke-linejoin:miter;stroke-opacity:1;font-family:Arial;" x="307.16241" y="231.87305" id="text4530"><tspan sodipodi:role="line" id="tspan4532" x="307.16241" y="231.87305">0.8</tspan></text>
    <text xml:space="preserve" style="font-size:10px;font-style:normal;font-variant:normal;font-weight:bold;font-stretch:normal;text-align:center;text-anchor:middle;fill:#2e3436;fill-opacity:1;stroke:none;stroke-width:1px;stroke-linecap:butt;stroke-linejoin:miter;stroke-opacity:1;font-family:Arial;" x="275.07858" y="231.87305" id="text4534"><tspan sodipodi:role="line" id="tspan4536" x="275.07858" y="231.87305">0.7</tspan></text>
    <text xml:space="preserve" style="font-size:10px;font-style:normal;font-variant:normal;font-weight:bold;font-stretch:normal;text-align:center;text-anchor:middle;fill:#2e3436;fill-opacity:1;stroke:none;stroke-width:1px;stroke-linecap:butt;stroke-linejoin:miter;stroke-opacity:1;font-family:Arial;" x="371.16162" y="231.87305" id="text4538"><tspan sodipodi:role="line" id="tspan4540" x="371.16162" y="231.87305">1.0</tspan></text>
    <text xml:space="preserve" style="font-size:10px;font-style:normal;font-variant:normal;font-weight:bold;font-stretch:normal;text-align:center;text-anchor:middle;fill:#2e3436;fill-opacity:1;stroke:none;stroke-width:1px;stroke-linecap:butt;stroke-linejoin:miter;stroke-opacity:1;font-family:Arial;" x="339.25113" y="231.87305" id="text4542"><tspan sodipodi:role="line" id="tspan4544" x="339.25113" y="231.87305">0.9</tspan></text>
    <text xml:space="preserve" style="font-size:10px;font-style:normal;font-variant:normal;font-weight:bold;font-stretch:normal;text-align:center;text-anchor:middle;fill:#2e3436;fill-opacity:1;stroke:none;stroke-width:1px;stroke-linecap:butt;stroke-linejoin:miter;stroke-opacity:1;font-family:Arial;" x="50.533203" y="231.87305" id="text4546"><tspan sodipodi:role="line" id="tspan4548" x="50.533203" y="231.87305">0.0</tspan></text>
    <text xml:space="preserve" style="font-size:10px;font-style:normal;font-variant:normal;font-weight:bold;font-stretch:normal;text-align:center;text-anchor:middle;fill:#2e3436;fill-opacity:1;stroke:none;stroke-width:1px;stroke-linecap:butt;stroke-linejoin:miter;stroke-opacity:1;font-family:Arial;" x="28.533201" y="193.87793" id="text4550"><tspan sodipodi:role="line" id="tspan4552" x="28.533201" y="193.87793">0.1</tspan></text>
    <text xml:space="preserve" style="font-size:10px;font-style:normal;font-variant:normal;font-weight:bold;font-stretch:normal;text-align:center;text-anchor:middle;fill:#2e3436;fill-opacity:1;stroke:none;stroke-width:1px;stroke-linecap:butt;stroke-linejoin:miter;stroke-opacity:1;font-family:Arial;" x="28.533201" y="174.87793" id="text4554"><tspan sodipodi:role="line" id="tspan4556" x="28.533201" y="174.87793">0.2</tspan></text>
    <text xml:space="preserve" style="font-size:10px;font-style:normal;font-variant:normal;font-weight:bold;font-stretch:normal;text-align:center;text-anchor:middle;fill:#2e3436;fill-opacity:1;stroke:none;stroke-width:1px;stroke-linecap:butt;stroke-linejoin:miter;stroke-opacity:1;font-family:Arial;" x="28.533201" y="98.87793" id="text4558"><tspan sodipodi:role="line" id="tspan4560" x="28.533201" y="98.87793">0.6</tspan></text>
    <text xml:space="preserve" style="font-size:10px;font-style:normal;font-variant:normal;font-weight:bold;font-stretch:normal;text-align:center;text-anchor:middle;fill:#2e3436;fill-opacity:1;stroke:none;stroke-width:1px;stroke-linecap:butt;stroke-linejoin:miter;stroke-opacity:1;font-family:Arial;" x="28.533201" y="117.87792" id="text4562"><tspan sodipodi:role="line" id="tspan4564" x="28.533201" y="117.87792">0.5</tspan></text>
    <text xml:space="preserve" style="font-size:10px;font-style:normal;font-variant:normal;font-weight:bold;font-stretch:normal;text-align:center;text-anchor:middle;fill:#2e3436;fill-opacity:1;stroke:none;stroke-width:1px;stroke-linecap:butt;stroke-linejoin:miter;stroke-opacity:1;font-family:Arial;" x="28.533201" y="136.87793" id="text4566"><tspan sodipodi:role="line" id="tspan4568" x="28.533201" y="136.87793">0.4</tspan></text>
    <text xml:space="preserve" style="font-size:10px;font-style:normal;font-variant:normal;font-weight:bold;font-stretch:normal;text-align:center;text-anchor:middle;fill:#2e3436;fill-opacity:1;stroke:none;stroke-width:1px;stroke-linecap:butt;stroke-linejoin:miter;stroke-opacity:1;font-family:Arial;" x="28.533201" y="155.87793" id="text4570"><tspan sodipodi:role="line" id="tspan4572" x="28.533201" y="155.87793">0.3</tspan></text>
    <text xml:space="preserve" style="font-size:10px;font-style:normal;font-variant:normal;font-weight:bold;font-stretch:normal;text-align:center;text-anchor:middle;fill:#2e3436;fill-opacity:1;stroke:none;stroke-width:1px;stroke-linecap:butt;stroke-linejoin:miter;stroke-opacity:1;font-family:Arial;" x="28.533201" y="60.875481" id="text4574"><tspan sodipodi:role="line" id="tspan4576" x="28.533201" y="60.875481">0.8</tspan></text>
    <text xml:space="preserve" style="font-size:10px;font-style:normal;font-variant:normal;font-weight:bold;font-stretch:normal;text-align:center;text-anchor:middle;fill:#2e3436;fill-opacity:1;stroke:none;stroke-width:1px;stroke-linecap:butt;stroke-linejoin:miter;stroke-opacity:1;font-family:Arial;" x="28.533201" y="79.87793" id="text4578"><tspan sodipodi:role="line" id="tspan4580" x="28.533201" y="79.87793">0.7</tspan></text>
    <text xml:space="preserve" style="font-size:10px;font-style:normal;font-variant:normal;font-weight:bold;font-stretch:normal;text-align:center;text-anchor:middle;fill:#2e3436;fill-opacity:1;stroke:none;stroke-width:1px;stroke-linecap:butt;stroke-linejoin:miter;stroke-opacity:1;font-family:Arial;" x="28.162107" y="22.87793" id="text4582"><tspan sodipodi:role="line" id="tspan4584" x="28.162107" y="22.87793">1.0</tspan></text>
    <text xml:space="preserve" style="font-size:10px;font-style:normal;font-variant:normal;font-weight:bold;font-stretch:normal;text-align:center;text-anchor:middle;fill:#2e3436;fill-opacity:1;stroke:none;stroke-width:1px;stroke-linecap:butt;stroke-linejoin:miter;stroke-opacity:1;font-family:Arial;" x="28.533201" y="41.875492" id="text4586"><tspan sodipodi:role="line" id="tspan4588" x="28.533201" y="41.875492">0.9</tspan></text>
    <text xml:space="preserve" style="font-size:10px;font-style:normal;font-variant:normal;font-weight:bold;font-stretch:normal;text-align:center;text-anchor:middle;fill:#2e3436;fill-opacity:1;stroke:none;stroke-width:1px;stroke-linecap:butt;stroke-linejoin:miter;stroke-opacity:1;font-family:Arial;" x="28.939205" y="212.87793" id="text4590"><tspan sodipodi:role="line" id="tspan4592" x="28.939205" y="212.87793">0.0</tspan></text>
    <text xml:space="preserve" style="font-size:11px;font-style:normal;font-variant:normal;font-weight:normal;font-stretch:normal;text-align:center;writing-mode:lr-tb;text-anchor:middle;fill:#2e3436;fill-opacity:1;stroke:none;stroke-width:1px;stroke-linecap:butt;stroke-linejoin:miter;stroke-opacity:1;font-family:Arial;" x="195.05258" y="247.85966" id="text4604" transform="scale(1.0000012,0.9999988)"><tspan sodipodi:role="line" id="tspan4606" x="195.05258" y="247.85966">Abstraction</tspan></text>
    <text xml:space="preserve" style="font-size:11px;font-style:normal;font-variant:normal;font-weight:normal;font-stretch:normal;text-align:center;writing-mode:lr-tb;text-anchor:middle;fill:#2e3436;fill-opacity:1;stroke:none;stroke-width:1px;stroke-linecap:butt;stroke-linejoin:miter;stroke-opacity:1;font-family:Arial;" x="-126.09961" y="10.589844" id="text4608" transform="matrix(0,-1,1,0,0,0)"><tspan sodipodi:role="line" id="tspan4610" x="-126.09961" y="10.589844">Instability</tspan></text>
    <text xml:space="preserve" style="font-size:9px;font-style:normal;font-weight:normal;text-align:center;text-anchor:middle;fill:#2e3436;fill-opacity:1;stroke:none;stroke-width:1px;stroke-linecap:butt;stroke-linejoin:miter;stroke-opacity:1;font-family:URW Chancery L" x="313.30417" y="246.10596" id="text2692"><tspan sodipodi:role="line" id="tspan2694" x="313.30417" y="246.10596" style="font-size:9px;font-style:italic;font-variant:normal;font-weight:normal;font-stretch:normal;fill:#2e3436;font-family:Arial; Italic">Generated  by PHP_Depend</tspan></text>
    
    
  <ellipse sodipodi:ry="15" sodipodi:rx="15" sodipodi:cy="15" sodipodi:cx="15" id="pdepend_5323297609659" style="fill:url(#jdepend.good.gradient);stroke:none" ry="15" rx="15" cy="15" cx="15" transform="matrix(1, 0, 0, 1, 35, 5)" title="+global"/></g>
  <g>
    
  </g>
</svg>
