<?xml version="1.0" encoding="UTF-8" standalone="no"?>
<!-- Created with Inkscape (http://www.inkscape.org/) -->
<svg xmlns:dc="http://purl.org/dc/elements/1.1/" xmlns:cc="http://creativecommons.org/ns#" xmlns:rdf="http://www.w3.org/1999/02/22-rdf-syntax-ns#" xmlns:svg="http://www.w3.org/2000/svg" xmlns="http://www.w3.org/2000/svg" xmlns:sodipodi="http://sodipodi.sourceforge.net/DTD/sodipodi-0.dtd" xmlns:inkscape="http://www.inkscape.org/namespaces/inkscape" width="390" height="250" id="svg5110" sodipodi:version="0.32" inkscape:version="0.46" version="1.0" sodipodi:docname="pyramid.svg" inkscape:output_extension="org.inkscape.output.svg.inkscape">
  <defs id="defs5112">
    <inkscape:perspective sodipodi:type="inkscape:persp3d" inkscape:vp_x="0 : 526.18109 : 1" inkscape:vp_y="0 : 1000 : 0" inkscape:vp_z="744.09448 : 526.18109 : 1" inkscape:persp3d-origin="372.04724 : 350.78739 : 1" id="perspective5118"/>
  </defs>
  <sodipodi:namedview id="base" pagecolor="#ffffff" bordercolor="#666666" borderopacity="1.0" gridtolerance="10000" guidetolerance="10" objecttolerance="10" inkscape:pageopacity="0.0" inkscape:pageshadow="2" inkscape:zoom="1.5" inkscape:cx="179.96345" inkscape:cy="96.137457" inkscape:document-units="px" inkscape:current-layer="layer1" showgrid="false" inkscape:window-width="1280" inkscape:window-height="753" inkscape:window-x="0" inkscape:window-y="46"/>
  <metadata id="metadata5115">
    <rdf:RDF>
      <cc:Work rdf:about="">
        <dc:format>image/svg+xml</dc:format>
        <dc:type rdf:resource="http://purl.org/dc/dcmitype/StillImage"/>
      </cc:Work>
    </rdf:RDF>
  </metadata>
  <g inkscape:label="Layer 1" inkscape:groupmode="layer" id="layer1">
    <rect style="fill:#555753" width="0" height="0" x="0" y="0" rx="0" ry="0" id="rect8982" xml:id="threshold.low"/>
    <rect style="fill:#73d216" width="0" height="0" x="0" y="0" rx="0" ry="0" id="rect8983" xml:id="threshold.average"/>
    <rect style="fill:#f57900" width="0" height="0" x="0" y="0" rx="0" ry="0" id="rect2834" xml:id="threshold.high"/>
    <rect style="opacity:1;fill:#2e3436;fill-opacity:1;stroke:none;stroke-width:1;stroke-miterlimit:4;stroke-dasharray:none;stroke-opacity:1" id="rect4954" width="118.69567" height="16.956522" x="232.7668" y="185.67191" rx="2.9780269" ry="0"/>
    <rect style="opacity:1;fill:#2e3436;fill-opacity:1;stroke:none;stroke-width:1;stroke-miterlimit:4;stroke-dasharray:none;stroke-opacity:1" id="rect4956" width="157.2332" height="34" x="232.7668" y="201" rx="3.9449191" ry="0"/>
    <rect style="opacity:1;fill:#2e3436;fill-opacity:1;stroke:none;stroke-width:1;stroke-miterlimit:4;stroke-dasharray:none;stroke-opacity:1" id="rect4958" width="80.158104" height="33.913044" x="154.15019" y="122.47035" rx="2.0111351" ry="0"/>
    <rect style="opacity:1;fill:#2e3436;fill-opacity:1;stroke:none;stroke-width:1;stroke-miterlimit:4;stroke-dasharray:none;stroke-opacity:1" id="rect4960" width="234.30832" height="34" x="0" y="201" rx="5.8787031" ry="0"/>
    <rect style="opacity:1;fill:#2e3436;fill-opacity:1;stroke:none;stroke-width:1;stroke-miterlimit:4;stroke-dasharray:none;stroke-opacity:1" id="rect4962" width="195.77077" height="16.956522" x="38.537552" y="185.67191" rx="4.9118109" ry="0"/>
    <rect style="opacity:1;fill:#2e3436;fill-opacity:1;stroke:none;stroke-width:1;stroke-miterlimit:4;stroke-dasharray:none;stroke-opacity:1" id="rect4964" width="157.2332" height="16.956522" x="77.075104" y="170.25687" rx="3.9449191" ry="0"/>
    <rect style="opacity:1;fill:#2e3436;fill-opacity:1;stroke:none;stroke-width:1;stroke-miterlimit:4;stroke-dasharray:none;stroke-opacity:1" id="rect4966" width="118.69567" height="16.956522" x="115.61267" y="154.84189" rx="2.9780269" ry="0"/>
    <rect style="opacity:1;fill:#d3d7cf;fill-opacity:1;stroke:none;stroke-width:1;stroke-miterlimit:4;stroke-dasharray:none;stroke-opacity:1" id="rect4968" width="231.22531" height="30.83004" x="1.541504" y="202.62846" rx="5.8013515" ry="0"/>
    <rect style="opacity:1;fill:#d3d7cf;fill-opacity:1;stroke:none;stroke-width:1;stroke-miterlimit:4;stroke-dasharray:none;stroke-opacity:1" id="rect4970" width="192.68774" height="15.41502" x="40.079056" y="187.21365" rx="4.8344593" ry="0"/>
    <rect style="opacity:1;fill:#d3d7cf;fill-opacity:1;stroke:none;stroke-width:1;stroke-miterlimit:4;stroke-dasharray:none;stroke-opacity:1" id="rect4972" width="154.15019" height="15.41502" x="78.616608" y="171.79837" rx="3.8675678" ry="0"/>
    <rect style="opacity:1;fill:#d3d7cf;fill-opacity:1;stroke:none;stroke-width:1;stroke-miterlimit:4;stroke-dasharray:none;stroke-opacity:1" id="rect4974" width="115.61266" height="15.41502" x="117.15414" y="156.38339" rx="2.9006755" ry="0"/>
    <rect style="opacity:1;fill:#fcaf3e;fill-opacity:1;stroke:none;stroke-width:1;stroke-miterlimit:4;stroke-dasharray:none;stroke-opacity:1" id="rect4976" width="77.075096" height="30.83004" x="155.6917" y="124.01187" rx="1.9337839" ry="0"/>
    <rect style="opacity:1;fill:#babdb6;fill-opacity:1;stroke:none;stroke-width:1;stroke-miterlimit:4;stroke-dasharray:none;stroke-opacity:1" id="rect4978" width="154.15019" height="30.83004" x="234.3083" y="202.62846" rx="3.8675678" ry="0"/>
    <rect style="opacity:1;fill:#babdb6;fill-opacity:1;stroke:none;stroke-width:1;stroke-miterlimit:4;stroke-dasharray:none;stroke-opacity:1" id="rect4980" width="115.61266" height="15.41502" x="234.3083" y="187.21341" rx="2.9006755" ry="0"/>
    <rect style="opacity:1;fill:#555753;fill-opacity:1;stroke:none;stroke-width:1;stroke-miterlimit:4;stroke-dasharray:none;stroke-opacity:1" id="rect4982" xml:id="rect.andc" width="38.537548" height="15.43004" x="194.22925" y="124.01187" rx="0.96689194" ry="0"/>
    <rect style="opacity:1;fill:#555753;fill-opacity:1;stroke:none;stroke-width:1;stroke-miterlimit:4;stroke-dasharray:none;stroke-opacity:1" id="rect2851" xml:id="rect.ahh" width="38.537548" height="15.4" x="194.22925" y="139.41187" rx="0.96689194" ry="0"/>
    <rect style="opacity:1;fill:#555753;fill-opacity:1;stroke:none;stroke-width:1;stroke-miterlimit:4;stroke-dasharray:none;stroke-opacity:1" id="rect4984" xml:id="rect.noc-nop" width="38.537548" height="15.41502" x="117.15414" y="156.38339" rx="0.80574334"/>
    <rect style="opacity:1;fill:#555753;fill-opacity:1;stroke:none;stroke-width:1;stroke-miterlimit:4;stroke-dasharray:none;stroke-opacity:1" id="rect4986" xml:id="rect.nom-noc" width="38.537548" height="15.41502" x="78.616608" y="171.79837" rx="0.80574334"/>
    <rect style="opacity:1;fill:#f57900;fill-opacity:1;stroke:none;stroke-width:1;stroke-miterlimit:4;stroke-dasharray:none;stroke-opacity:1" id="rect4988" xml:id="rect.loc-nom" width="38.537548" height="15.41502" x="40.079056" y="187.21341" rx="0.80574334"/>
    <rect style="opacity:1;fill:#555753;fill-opacity:1;stroke:none;stroke-width:1;stroke-miterlimit:4;stroke-dasharray:none;stroke-opacity:1" id="rect4990" xml:id="rect.cyclo-loc" width="38.537548" height="15.41502" x="1.541504" y="202.62846" rx="0.80574334"/>
    <rect style="opacity:1;fill:#f57900;fill-opacity:1;stroke:none;stroke-width:1;stroke-miterlimit:4;stroke-dasharray:none;stroke-opacity:1" id="rect4992" xml:id="rect.calls-nom" width="38.537548" height="15.41502" x="311.38339" y="187.21341" rx="0.80574334"/>
    <rect style="opacity:1;fill:#555753;fill-opacity:1;stroke:none;stroke-width:1;stroke-miterlimit:4;stroke-dasharray:none;stroke-opacity:1" id="rect4994" xml:id="rect.fanout-calls" width="38.537548" height="15.41502" x="349.92096" y="202.62846" rx="0.80574334"/>
    <rect style="opacity:1;fill:#eeeeec;fill-opacity:1;stroke:none;stroke-width:1;stroke-miterlimit:4;stroke-dasharray:none;stroke-opacity:1" id="rect4996" width="231.22531" height="1" x="1.541504" y="217.04344" rx="5.8013515" ry="0"/>
    <rect style="opacity:1;fill:#eeeeec;fill-opacity:1;stroke:none;stroke-width:1;stroke-miterlimit:4;stroke-dasharray:none;stroke-opacity:1" id="rect4998" width="192.68774" height="1" x="40.079056" y="201.62846" rx="4.8344593" ry="0"/>
    <rect style="opacity:1;fill:#eeeeec;fill-opacity:1;stroke:none;stroke-width:1;stroke-miterlimit:4;stroke-dasharray:none;stroke-opacity:1" id="rect5000" width="154.15019" height="1" x="78.616608" y="186.21341" rx="3.8675678" ry="0"/>
    <rect style="opacity:1;fill:#eeeeec;fill-opacity:1;stroke:none;stroke-width:1;stroke-miterlimit:4;stroke-dasharray:none;stroke-opacity:1" id="rect5002" width="115.61266" height="1" x="117.15414" y="170.79837" rx="2.9006755" ry="0"/>
    <rect style="opacity:1;fill:#eeeeec;fill-opacity:1;stroke:none;stroke-width:1;stroke-miterlimit:4;stroke-dasharray:none;stroke-opacity:1" id="rect5004" width="115.61266" height="1" x="234.3083" y="201.62846" rx="2.9006755" ry="0"/>
    <rect style="opacity:1;fill:#eeeeec;fill-opacity:1;stroke:none;stroke-width:1;stroke-miterlimit:4;stroke-dasharray:none;stroke-opacity:1" id="rect5006" width="154.15019" height="1" x="234.3083" y="217.04344" rx="3.8675678" ry="0"/>
    <rect style="opacity:1;fill:#eeeeec;fill-opacity:1;stroke:none;stroke-width:1;stroke-miterlimit:4;stroke-dasharray:none;stroke-opacity:1" id="rect5008" width="77.075096" height="1" x="155.6917" y="138.42685" rx="1.9337839" ry="0"/>
    <text xml:space="preserve" style="font-size:11px;font-style:normal;font-variant:normal;font-weight:bold;font-stretch:normal;fill:#000000;fill-opacity:1;stroke:none;stroke-width:1px;stroke-linecap:butt;stroke-linejoin:miter;stroke-opacity:1;font-family:Arial" x="158" y="135" title="Average Number of Derived Classes" id="text5010"><tspan sodipodi:role="line" title="Average Number of Derived Classes" id="tspan5012" x="158" y="135">ANDC</tspan></text>
    <text xml:space="preserve" style="font-size:11px;font-style:normal;font-variant:normal;font-weight:bold;font-stretch:normal;fill:#000000;fill-opacity:1;stroke:none;stroke-width:1px;stroke-linecap:butt;stroke-linejoin:miter;stroke-opacity:1;font-family:Arial" x="158" y="151" title="Average Hierarchy Height" id="text5014"><tspan sodipodi:role="line" title="Average Hierarchy Height" id="tspan5016" x="158" y="151">AHH</tspan></text>
    <text xml:space="preserve" style="font-size:11px;font-style:normal;font-variant:normal;font-weight:bold;font-stretch:normal;fill:#000000;fill-opacity:1;stroke:none;stroke-width:1px;stroke-linecap:butt;stroke-linejoin:miter;stroke-opacity:1;font-family:Arial" x="158" y="168" title="Number Of Packages" id="text5018"><tspan sodipodi:role="line" title="Number Of Packages" id="tspan5020" x="158" y="168">NOP</tspan></text>
    <text xml:space="preserve" style="font-size:11px;font-style:normal;font-variant:normal;font-weight:bold;font-stretch:normal;fill:#000000;fill-opacity:1;stroke:none;stroke-width:1px;stroke-linecap:butt;stroke-linejoin:miter;stroke-opacity:1;font-family:Arial" x="119" y="183.00002" id="text5022" title="Number Of Classes" transform="scale(0.9999985,1.0000015)"><tspan sodipodi:role="line" title="Number Of Classes" id="tspan5024" x="119" y="183.00002">NOC</tspan></text>
    <text xml:space="preserve" style="font-size:11px;font-style:normal;font-variant:normal;font-weight:bold;font-stretch:normal;fill:#000000;fill-opacity:1;stroke:none;stroke-width:1px;stroke-linecap:butt;stroke-linejoin:miter;stroke-opacity:1;font-family:Arial" x="81" y="198.00002" id="text5026" title="Number Of Methods (Methods+Functions)" transform="scale(0.9999985,1.0000015)"><tspan sodipodi:role="line" title="Number Of Methods (Methods+Functions)" id="tspan5028" x="81" y="198.00002">NOM</tspan></text>
    <text xml:space="preserve" style="font-size:11px;font-style:normal;font-variant:normal;font-weight:bold;font-stretch:normal;fill:#000000;fill-opacity:1;stroke:none;stroke-width:1px;stroke-linecap:butt;stroke-linejoin:miter;stroke-opacity:1;font-family:Arial" x="42" y="213.00002" id="text5030" title="Lines Of Code (Non Comment and Non Whitespace Lines)" transform="scale(0.9999985,1.0000015)"><tspan sodipodi:role="line" title="Lines Of Code (Non Comment and Non Whitespace Lines)" id="tspan5032" x="42" y="213.00002">LOC</tspan></text>
    <text xml:space="preserve" style="font-size:11px;font-style:normal;font-variant:normal;font-weight:bold;font-stretch:normal;fill:#000000;fill-opacity:1;stroke:none;stroke-width:1px;stroke-linecap:butt;stroke-linejoin:miter;stroke-opacity:1;font-family:Arial" x="3" y="230.00002" id="text5034" title="Cyclomatic Complexity" transform="scale(0.9999985,1.0000015)"><tspan sodipodi:role="line" title="Cyclomatic Complexity" id="tspan5036" x="3" y="230.00002">CYCLO</tspan></text>
    <text xml:space="preserve" style="font-size:11px;font-style:normal;font-variant:normal;font-weight:bold;font-stretch:normal;text-align:end;text-anchor:end;fill:#000000;fill-opacity:1;stroke:none;stroke-width:1px;stroke-linecap:butt;stroke-linejoin:miter;stroke-opacity:1;font-family:Arial" x="308.85785" y="198.00043" id="text5038" title="Number Of Methods (Methods+Functions)" transform="scale(0.9999985,1.0000015)"><tspan sodipodi:role="line" title="Number Of Methods (Methods+Functions)" id="tspan5040" x="308.85785" y="198.00043">NOM</tspan></text>
    <text xml:space="preserve" style="font-size:11px;font-style:normal;font-variant:normal;font-weight:bold;font-stretch:normal;text-anchor:end;fill:#000000;fill-opacity:1;stroke:none;stroke-width:1px;stroke-linecap:butt;stroke-linejoin:miter;stroke-opacity:1;font-family:Arial" x="348" y="213.00002" id="text5042" title="Number of Operation Calls" transform="scale(0.9999985,1.0000015)"><tspan sodipodi:role="line" title="Number of Operation Calls" id="tspan5044" x="348" y="213.00002">CALLS</tspan></text>
    <text xml:space="preserve" style="font-size:11px;font-style:normal;font-variant:normal;font-weight:bold;font-stretch:normal;text-anchor:end;fill:#000000;fill-opacity:1;stroke:none;stroke-width:1px;stroke-linecap:butt;stroke-linejoin:miter;stroke-opacity:1;font-family:Arial" x="387" y="230.00002" id="text5046" title="Number of Called Classes" transform="scale(0.9999985,1.0000015)"><tspan sodipodi:role="line" title="Number of Called Classes" id="tspan5048" x="387" y="230.00002">FANOUT</tspan></text>
    <text xml:space="preserve" style="font-size:11px;font-style:normal;font-variant:normal;font-weight:bold;font-stretch:normal;fill:#000000;fill-opacity:1;stroke:none;stroke-width:1px;stroke-linecap:butt;stroke-linejoin:miter;stroke-opacity:1;font-family:Arial" title="Number of Called Classes" x="236" y="230.00002" id="text5050" transform="scale(0.9999985,1.0000015)"><tspan sodipodi:role="line" title="Number of Called Classes" id="tspan5052" xml:id="pdepend.fanout" x="236" y="230.00002">9</tspan></text>
    <text xml:space="preserve" style="font-size:11px;font-style:normal;font-variant:normal;font-weight:bold;font-stretch:normal;fill:#000000;fill-opacity:1;stroke:none;stroke-width:1px;stroke-linecap:butt;stroke-linejoin:miter;stroke-opacity:1;font-family:Arial" title="Number of Operation Calls" x="236" y="213.00002" id="text5054" transform="scale(0.9999985,1.0000015)"><tspan sodipodi:role="line" title="Number of Operation Calls" id="tspan5056" xml:id="pdepend.calls" x="236" y="213.00002">38</tspan></text>
    <text xml:space="preserve" style="font-size:11px;font-style:normal;font-variant:normal;font-weight:bold;font-stretch:normal;text-anchor:end;fill:#000000;fill-opacity:1;stroke:none;stroke-width:1px;stroke-linecap:butt;stroke-linejoin:miter;stroke-opacity:1;font-family:Arial" title="Cyclomatic Complexity" x="232" y="230.00002" id="text5058" transform="scale(0.9999985,1.0000015)"><tspan sodipodi:role="line" title="Cyclomatic Complexity" id="tspan5060" xml:id="pdepend.cyclo" x="232" y="230.00002">31</tspan></text>
    <text xml:space="preserve" style="font-size:11px;font-style:normal;font-variant:normal;font-weight:bold;font-stretch:normal;text-anchor:end;fill:#000000;fill-opacity:1;stroke:none;stroke-width:1px;stroke-linecap:butt;stroke-linejoin:miter;stroke-opacity:1;font-family:Arial" title="Lines Of Code (Non Comment and Non Whitespace Lines)" x="232" y="213.00002" id="text5062" transform="scale(0.9999985,1.0000015)"><tspan sodipodi:role="line" xml:id="pdepend.loc" title="Lines Of Code (Non Comment and Non Whitespace Lines)" id="tspan5064" x="232" y="213.00002">189</tspan></text>
    <text xml:space="preserve" style="font-size:11px;font-style:normal;font-variant:normal;font-weight:bold;font-stretch:normal;text-anchor:end;fill:#000000;fill-opacity:1;stroke:none;stroke-width:1px;stroke-linecap:butt;stroke-linejoin:miter;stroke-opacity:1;font-family:Arial" title="Number Of Methods (Methods+Functions)" x="232" y="198.00002" id="text5066" transform="scale(0.9999985,1.0000015)"><tspan sodipodi:role="line" title="Number Of Methods (Methods+Functions)" id="tspan5068" xml:id="pdepend.nom" x="232" y="198.00002">8</tspan></text>
    <text xml:space="preserve" style="font-size:11px;font-style:normal;font-variant:normal;font-weight:bold;font-stretch:normal;text-anchor:end;fill:#000000;fill-opacity:1;stroke:none;stroke-width:1px;stroke-linecap:butt;stroke-linejoin:miter;stroke-opacity:1;font-family:Arial" title="Number Of Packages" x="232" y="168.00002" id="text5070" transform="scale(0.9999985,1.0000015)"><tspan sodipodi:role="line" title="Number Of Packages" id="tspan5072" xml:id="pdepend.nop" x="232" y="168.00002">1</tspan></text>
    <text xml:space="preserve" style="font-size:11px;font-style:normal;font-variant:normal;font-weight:bold;font-stretch:normal;text-anchor:end;fill:#000000;fill-opacity:1;stroke:none;stroke-width:1px;stroke-linecap:butt;stroke-linejoin:miter;stroke-opacity:1;font-family:Arial" title="Number Of Classes" x="232" y="183.00002" id="text5074" transform="scale(0.9999985,1.0000015)"><tspan sodipodi:role="line" title="Number Of Classes" id="tspan5076" xml:id="pdepend.noc" x="232" y="183.00002">3</tspan></text>
    <text xml:space="preserve" style="font-size:11px;font-style:normal;font-variant:normal;font-weight:bold;font-stretch:normal;text-anchor:end;fill:#eeeeec;fill-opacity:1;stroke:none;stroke-width:1px;stroke-linecap:butt;stroke-linejoin:miter;stroke-opacity:1;font-family:Arial" title="Average Number of Derived Classes" x="232" y="135.00002" id="text5078" transform="scale(0.9999985,1.0000015)"><tspan sodipodi:role="line" title="Average Number of Derived Classes" id="tspan5080" xml:id="pdepend.andc" x="232" y="135.00002">0</tspan></text>
    <text xml:space="preserve" style="font-size:11px;font-style:normal;font-variant:normal;font-weight:bold;font-stretch:normal;text-anchor:end;fill:#eeeeec;fill-opacity:1;stroke:none;stroke-width:1px;stroke-linecap:butt;stroke-linejoin:miter;stroke-opacity:1;font-family:Arial" title="Average Hierarchy Height" x="232" y="151.00002" id="text5082" transform="scale(0.9999985,1.0000015)"><tspan sodipodi:role="line" title="Average Hierarchy Height" id="tspan5084" xml:id="pdepend.ahh" x="232" y="151.00002">0</tspan></text>
    <text xml:space="preserve" style="font-size:11px;font-style:normal;font-variant:normal;font-weight:bold;font-stretch:normal;fill:#eeeeec;fill-opacity:1;stroke:none;stroke-width:1px;stroke-linecap:butt;stroke-linejoin:miter;stroke-opacity:1;font-family:Arial" title="Ratio: Number of Classes / Number of Packages" x="119" y="168.00002" id="text5086" transform="scale(0.9999985,1.0000015)"><tspan sodipodi:role="line" title="Ratio: Number of Classes / Number of Packages" id="tspan5088" xml:id="pdepend.noc-nop" x="119" y="168.00002">3</tspan></text>
    <text xml:space="preserve" style="font-size:11px;font-style:normal;font-variant:normal;font-weight:bold;font-stretch:normal;fill:#eeeeec;fill-opacity:1;stroke:none;stroke-width:1px;stroke-linecap:butt;stroke-linejoin:miter;stroke-opacity:1;font-family:Arial" title="Ratio: Number of Methods / Number of Classes" x="81" y="183.00002" id="text5090" transform="scale(0.9999985,1.0000015)"><tspan sodipodi:role="line" title="Ratio: Number of Methods / Number of Classes" id="tspan5092" xml:id="pdepend.nom-noc" x="81" y="183.00002">2.667</tspan></text>
    <text xml:space="preserve" style="font-size:11px;font-style:normal;font-variant:normal;font-weight:bold;font-stretch:normal;fill:#eeeeec;fill-opacity:1;stroke:none;stroke-width:1px;stroke-linecap:butt;stroke-linejoin:miter;stroke-opacity:1;font-family:Arial" title="Ratio: Lines of Code / Number of Methods" x="42" y="198.00002" id="text5094" transform="scale(0.9999985,1.0000015)"><tspan sodipodi:role="line" title="Ratio: Lines of Code / Number of Methods" id="tspan5096" xml:id="pdepend.loc-nom" x="42" y="198.00002">23.625</tspan></text>
    <text xml:space="preserve" style="font-size:11px;font-style:normal;font-variant:normal;font-weight:bold;font-stretch:normal;fill:#eeeeec;fill-opacity:1;stroke:none;stroke-width:1px;stroke-linecap:butt;stroke-linejoin:miter;stroke-opacity:1;font-family:Arial" title="Ratio: Cyclomatic Complexity / Lines of Code" x="3" y="213.00002" id="text5098" transform="scale(0.9999985,1.0000015)"><tspan sodipodi:role="line" title="Ratio: Cyclomatic Complexity / Lines of Code" id="tspan5100" xml:id="pdepend.cyclo-loc" x="3" y="213.00002">0.164</tspan></text>
    <text xml:space="preserve" style="font-size:11px;font-style:normal;font-variant:normal;font-weight:bold;font-stretch:normal;text-anchor:end;fill:#eeeeec;fill-opacity:1;stroke:none;stroke-width:1px;stroke-linecap:butt;stroke-linejoin:miter;stroke-opacity:1;font-family:Arial" title="Ratio: Number of Called Classes(FANOUT) / Number of Operation Calls" x="388.56299" y="213.00002" id="text5102" transform="scale(0.9999985,1.0000015)"><tspan sodipodi:role="line" title="Ratio: Number of Called Classes(FANOUT) / Number of Operation Calls" id="tspan5104" xml:id="pdepend.fanout-calls" x="388.56299" y="213.00002">0.237</tspan></text>
    <text xml:space="preserve" style="font-size:11px;font-style:normal;font-variant:normal;font-weight:bold;font-stretch:normal;text-anchor:end;fill:#eeeeec;fill-opacity:1;stroke:none;stroke-width:1px;stroke-linecap:butt;stroke-linejoin:miter;stroke-opacity:1;font-family:Arial" title="Ratio: Number of Operation Calls / Number of Methods (Methods+Functions)" x="348" y="198.00002" id="text5106" transform="scale(0.9999985,1.0000015)"><tspan sodipodi:role="line" title="Ratio: Number of Operation Calls / Number of Methods (Methods+Functions)" id="tspan5108" xml:id="pdepend.calls-nom" x="348" y="198.00002">4.75</tspan></text>
    <text xml:space="preserve" style="font-size:8px;font-style:normal;font-variant:normal;font-weight:bold;font-stretch:normal;text-align:end;text-anchor:end;fill:#2e3436;fill-opacity:1;stroke:none;stroke-width:1px;stroke-linecap:butt;stroke-linejoin:miter;stroke-opacity:1;font-family:Arial" x="386.39493" y="246.10596" id="text2692"><tspan sodipodi:role="line" id="tspan2694" x="386.39493" y="246.10596" style="font-size:9px;font-style:italic;font-variant:normal;font-weight:normal;font-stretch:normal;text-align:end;text-anchor:end;fill:#2e3436;font-family:Arial;">Generated  by PHP_Depend</tspan></text>
    <path sodipodi:type="arc" style="opacity:1;fill:#555753;fill-opacity:1;stroke:none;stroke-width:1;stroke-miterlimit:4;stroke-dasharray:none;stroke-opacity:1" id="path3780" sodipodi:cx="53.333332" sodipodi:cy="285.66666" sodipodi:rx="12" sodipodi:ry="10.333333" d="M 65.333332,285.66666 A 12,10.333333 0 1 1 41.333332,285.66666 A 12,10.333333 0 1 1 65.333332,285.66666 z" transform="matrix(0.375,0,0,0.4354839,-5.4999995,119.09677)"/>
    <text xml:space="preserve" style="font-size:8px;font-style:normal;font-weight:bold;text-align:center;text-anchor:middle;fill:#2e3436;fill-opacity:1;stroke:none;stroke-width:1px;stroke-linecap:butt;stroke-linejoin:miter;stroke-opacity:1;font-family:URW Chancery L;" x="32.386719" y="246.64209" id="text3782"><tspan sodipodi:role="line" id="tspan3784" x="32.386719" y="246.64209" style="font-size:9px;font-style:normal;font-variant:normal;font-weight:bold;font-stretch:normal;fill:#2e3436;font-family:Arial;">Low</tspan></text>
    <path sodipodi:type="arc" style="opacity:1;fill:#73d216;fill-opacity:1;stroke:none;stroke-width:1;stroke-miterlimit:4;stroke-dasharray:none;stroke-opacity:1" id="path3786" sodipodi:cx="53.333332" sodipodi:cy="285.66666" sodipodi:rx="12" sodipodi:ry="10.333333" d="M 65.333332,285.66666 A 12,10.333333 0 1 1 41.333332,285.66666 A 12,10.333333 0 1 1 65.333332,285.66666 z" transform="matrix(0.375,0,0,0.4354839,54.5,119.09677)"/>
    <text xml:space="preserve" style="font-size:8px;font-style:normal;font-weight:bold;text-align:center;text-anchor:middle;fill:#2e3436;fill-opacity:1;stroke:none;stroke-width:1px;stroke-linecap:butt;stroke-linejoin:miter;stroke-opacity:1;font-family:URW Chancery L;" x="102.38672" y="245.77417" id="text3788"><tspan sodipodi:role="line" id="tspan3790" x="102.38672" y="245.77417" style="font-size:9px;font-style:normal;font-variant:normal;font-weight:bold;font-stretch:normal;fill:#2e3436;font-family:Arial;">Average</tspan></text>
    <path sodipodi:type="arc" style="opacity:1;fill:#f57900;fill-opacity:1;stroke:none;stroke-width:1;stroke-miterlimit:4;stroke-dasharray:none;stroke-opacity:1" id="path3792" sodipodi:cx="53.333332" sodipodi:cy="285.66666" sodipodi:rx="12" sodipodi:ry="10.333333" d="M 65.333332,285.66666 A 12,10.333333 0 1 1 41.333332,285.66666 A 12,10.333333 0 1 1 65.333332,285.66666 z" transform="matrix(0.375,0,0,0.4354839,132.5,119.09677)"/>
    <text xml:space="preserve" style="font-size:8px;font-style:normal;font-weight:bold;text-align:center;text-anchor:middle;fill:#2e3436;fill-opacity:1;stroke:none;stroke-width:1px;stroke-linecap:butt;stroke-linejoin:miter;stroke-opacity:1;font-family:URW Chancery L;" x="170.38672" y="245.77417" id="text3794"><tspan sodipodi:role="line" id="tspan3796" x="170.38672" y="245.77417" style="font-size:9px;font-style:normal;font-variant:normal;font-weight:bold;font-stretch:normal;fill:#2e3436;font-family:Arial;">High</tspan></text>
  </g>
</svg>
